Analisis de Sentimientos Noticieros Chilenos
…
De los datos se observa que el mnimo de palabras utilizadas por todos los noticieros es de entre 6 y 7 palabras.

El noticiero que ms alterna entre tweets cortos y largos en @CNNChile, que indica, junto a la cantidad diferente de palabras, una mayor diversidad en los mensajes.

Palabras ms utilizadas

tweets_tidy %>% group_by(autor, token) %>% count(token) %>% group_by(autor) %>%
      top_n(10, n) %>% arrange(autor, desc(n)) %>% print(n=10)

## # A tibble: 50 x 3
## # Groups:   autor [5]
##    autor      token      n
##    <chr>      <chr>  <int>
##  1 24HorasTVN sigue    542
##  2 24HorasTVN vivo     500
##  3 24HorasTVN seal    461
##  4 24HorasTVN envivo   208
##  5 24HorasTVN minuto   193
##  6 24HorasTVN chile    175
##  7 24HorasTVN copa     164
##  8 24HorasTVN ms      151
##  9 24HorasTVN tras     146
## 10 24HorasTVN roja     142
## # ... with 40 more rows
…
